﻿cid_human;or;cid_mouse;ec_50
62378;OR1A1;443157;
15717;OR1A1;101977;
439570;OR1A1;8174;
16724;OR1A1;8129;
246728;OR1A1;8051;
24473;OR1A1;13187;
7802;OR1A1;8093;
101977;OR1A1;7802;
7438;OR1A1;246728;
5283345;OR1A1;68110;
638011;OR1A1;8878;
7794;OR1A1;15717;
98118;OR1A1;3102;
454;OR1A1;8785;
957;OR1A1;8842;
3782139;OR1A1;439570;
443157;OR1A1;16724;
638011;OR1A1;24473;
8130;OR1A1;62378;
;OR1A1;637566;
;OR1A1;4763;
;OR1A1;31289;
;OR1A1;15077;
;OR1A1;8144;
529481;OR1A1;;
5282108;OR1A2;7794;
638014;OR1A2;4763;
1146;OR1A2;31289;
443157;OR1A2;;
8130;OR1A2;;
957;OR1A2;;
101977;OR1A2;;
454;OR1A2;;
7438;OR1A2;;
5283345;OR1A2;;
638011;OR1A2;;
98118;OR1A2;;
3782139;OR1A2;;
7794;OR1A2;;
;OR1B1;;
323;OR1C1;323;
6549;OR1C1;7410;
6852393;OR1C1;;
8158;OR1C1;;
;OR1C1;68110;
;OR1C1;16724;
64832;OR1D2;;
105512;OR1D2;;
617827;OR1D2;;
7707;OR1D2;;
64805;OR1D2;;
8467;OR1D2;;
85979;OR1D2;;
228987;OR1D2;;
12348;OR1D2;;
1549026;OR1D2;;
7410;OR1D2;;
64813;OR1D2;;
105513;OR1D2;;
595340;OR1D2;;
29030;OR1D2;;
998;OR1D2;;
3314;OR1D5;;
64832;OR1E1;;
10430;OR1E1;;
8186;OR1E1;;
7410;OR1E3;;
240;OR1G1;323;
7720;OR1G1;7410;
7762;OR1G1;68110;
637566;OR1G1;16724;
7976;OR1G1;3782139;
8048;OR1G1;12813;
8158;OR1G1;31289;
8175;OR1G1;68382;
8174;OR1G1;15717;
8186;OR1G1;8785;
8193;OR1G1;444294;
8369;OR1G1;230921;
1183;OR1G1;439570;
31276;OR1G1;7967;
454;OR1G1;22227;
31289;OR1G1;62378;
22311;OR1G1;14525;
20083;OR1G1;637566;
1254;OR1G1;4409936;
942;OR1G1;14489;
62444;OR1G1;;
102861;OR1G1;;
9256;OR1G1;;
9261;OR1G1;;
2969;OR1G1;;
637563;OR1G1;;
638011;OR1G1;;
62098;OR1G1;;
11515;OR1G1;;
11527;OR1G1;;
12367;OR1G1;;
6184;OR1G1;;
12813;OR1G1;;
159055;OR1G1;;
13187;OR1G1;;
6989;OR1G1;;
460;OR1G1;;
7047;OR1G1;;
61235;OR1G1;;
5144;OR1G1;;
7222;OR1G1;;
7342;OR1G1;;
7410;OR1G1;;
8130;OR1G1;;
957;OR1G1;;
8129;OR1G1;;
10430;OR1G1;;
244;OR1G1;;
3782139;OR1G1;;
1032;OR1G1;;
25311;OR1G1;;
25612;OR1G1;;
8914;OR1G1;;
11508;OR1G1;;
;OR1J1;439570;
;OR1J1;8842;
;OR1J1;7967;
;OR1J1;24473;
;OR1J1;444294;
;OR1J1;159055;
;OR1J1;1201521;
;OR1J1;16724;
;OR1J4;444294;
;OR1J4;159055;
;OR1J4;439570;
;OR1J4;16724;
;OR1J4;2794921;
;OR1J4;1201521;
1183;OR1L3;;
105513;OR1L3;;
5366077;OR1L3;;
6850781;OR1N1;;
6549;OR1N2;;
92043553;OR1S2;;
;OR2A4;;
;OR2A7;;
1549026;OR2A25;;
7047;OR2A25;;
92979;OR2A25;;
7136;OR2B3;;
5284507;OR2B3;;
638014;OR2B3;;
638014;OR2B3;;
637511;OR2B11;;
323;OR2B11;;
17356;OR2B11;;
;OR2B11;;
20499;OR2B11;;
7047;OR2B11;;
520119;OR2B11;;
54682930;OR2B11;;
637511;OR2B11;;
323;OR2B11;;
22311;OR2B11;;
8144;OR2C1;91604;
15077;OR2C1;8158;
637511;OR2C1;2969;
1133;OR2C1;68382;
998;OR2C1;62539;
;OR2C1;10886;
;OR2C1;15717;
;OR2C1;379;
;OR2C1;7967;
;OR2C1;8144;
;OR2C1;379;
;OR2C1;323;
;OR2C1;10886;
;OR2C1;7392;
;OR2C1;7410;
;OR2C1;439570;
;OR2C1;16724;
;OR2C1;7422;
;OR2C1;7965;
;OR2C1;7894;
;OR2C1;1001;
;OR2C1;9309;
;OR2C1;6374;
;OR2C1;15620;
;OR2C1;7961;
;OR2C1;8438;
;OR2C1;7824;
;OR2C1;6544;
;OR2C1;32594;
;OR2C1;1140;
;OR2C1;11527;
;OR2D2;8158;
;OR2D2;2969;
;OR2D2;8144;
;OR2D2;15077;
7136;OR2F1;;
11039;OR2G2;;
5366077;OR2G2;;
1183;OR2G2;;
637511;OR2G2;;
18635;OR2H1;;
;OR2H2;7136;
;OR2H2;8785;
5281167;OR2J1;;
323;OR2J2;;
957;OR2J2;323;
8129;OR2J2;439570;
8914;OR2J2;16724;
8174;OR2J2;8103;
8467;OR2J2;8129;
6852393;OR2J2;;
24433;OR2J2;;
7127;OR2J2;;
998;OR2J2;;
853433;OR2J2;;
7967;OR2J2;;
5281167;OR2J2;;
4763;OR2J2;;
5281167;OR2J3;;
1549026;OR2J3;;
637511;OR2J3;;
12348;OR2J3;;
454;OR2J3;;
;OR2J3;;
7127;OR2J3;;
61014;OR2J3;;
4763;OR2J3;;
323;OR2J3;;
;OR2L8;68110;
;OR2L8;15717;
;OR2L9;62378;
;OR2L10;7967;
;OR2L11;24473;
;OR2L12;16724;
;OR2L13;14489;
;OR2L14;8785;
;OR2L15;7342;
;OR2L16;1201521;
;OR2L17;8129;
;OR2L18;12756;
;OR2L19;8093;
;OR2L20;246728;
;OR2L21;7802;
;OR2L22;8051;
;OR2L23;11583;
;OR2L24;7410;
;OR2L25;12348;
1549026;OR2M2;;
7793;OR2M2;;
6430888;OR2M3;;
;OR2M3;;
8815;OR2M4;;
7731;OR2M4;;
80865;OR2M4;;
637511;OR2M4;;
105513;OR2M4;;
5366077;OR2M4;;
5284507;OR2M4;;
1183;OR2M4;;
637566;OR2M7;19707;
7793;OR2M7;;
853433;OR2S2;;
264;OR2T1;;
16072318;OR2T1;;
521348;OR2T2;;
8067;OR2T2;;
3371;OR2T4;;
92043553;OR2T6;;
8067;OR2T8;;
11039;OR2T10;;
111037;OR2T10;;
637511;OR2T10;;
1183;OR2T10;;
5366077;OR2T10;;
6387;OR2T11;;
6364;OR2T11;;
7848;OR2T11;;
6343;OR2T11;;
122370;OR2T11;;
878;OR2T11;;
13367;OR2T11;;
10560;OR2T11;;
402;OR2T11;;
;OR2T11;;
519823;OR2T11;;
105513;OR2T34;;
80865;OR2T34;;
637511;OR2T34;;
5366077;OR2T34;;
8815;OR2T34;;
162000;OR2T34;;
1183;OR2T34;;
;OR2V2;22311;
323;OR2W1;;
379;OR2W1;;
454;OR2W1;;
957;OR2W1;;
2969;OR2W1;;
3102;OR2W1;;
6184;OR2W1;;
7410;OR2W1;;
8842;OR2W1;;
7802;OR2W1;;
8051;OR2W1;;
8093;OR2W1;;
8103;OR2W1;;
8129;OR2W1;;
8130;OR2W1;;
8144;OR2W1;;
8158;OR2W1;;
8174;OR2W1;;
8785;OR2W1;;
8908;OR2W1;;
8914;OR2W1;;
11583;OR2W1;;
11614;OR2W1;;
13187;OR2W1;;
14489;OR2W1;;
15077;OR2W1;;
15717;OR2W1;;
16724;OR2W1;;
19707;OR2W1;;
24473;OR2W1;;
31289;OR2W1;;
62378;OR2W1;;
62539;OR2W1;;
68110;OR2W1;;
246728;OR2W1;;
439570;OR2W1;;
637566;OR2W1;;
3782139;OR2W1;;
5281167;OR2W1;;
;OR2W3;;
439570;OR2Y1;;
7967;OR2AE1;7967;
159055;OR2AE1;444294;
68110;OR2AE1;;
444294;OR2AE1;68110;
10890;OR2AG1;;
;OR2AG1;;
;OR2AG1;;
;OR2AG1;;
;OR2AG1;;
33166;OR2AG1;;
103212;OR2AT4;;
1747973;OR2AT4;;
21648;OR2AT4;;
61005;OR2AT4;;
853433;OR2AT4;;
;OR2AT4;;
228987;OR3A1;4763;
4763;OR3A1;;
64813;OR3A1;;
85979;OR3A1;;
95594;OR3A1;;
95593;OR3A1;;
8438;OR3A1;;
12227576;OR3A1;;
91686;OR3A1;;
64832;OR3A1;;
5372813;OR3A1;;
7707;OR3A1;;
6850781;OR3A1;;
64832;OR3A1;;
95594;OR3A1;;
95593;OR3A1;;
64813;OR3A1;;
12227576;OR3A1;;
91686;OR3A1;;
228987;OR3A1;;
5372813;OR3A1;;
7707;OR3A1;;
64805;OR3A1;;
8467;OR3A1;;
62378;OR3A1;;
85979;OR3A1;;
6040503;OR3A1;;
;OR4A4;;
;OR4C3;637566;
5374527;OR4C3;;
10430;OR4C12;439570;
;OR4C12;16724;
798;OR4C15;;
6736;OR4C15;;
;OR4C16;;
7710;OR4C16;;
;OR4D1;;
7136;OR4D2;;
638014;OR4D6;;
638014;OR4D9;;
12348;OR4E2;;
;OR4E2;638079;
;OR4E2;;
6852393;OR4F17 / OR4F19;;
;OR4K2;;
;OR4K2;;
7707;OR4K2;;
;OR4K5;;
1549026;OR4L1;;
17561266;OR4M1;;
7410;OR4M1;;
92043553;OR4N4;3314;
;OR4P4;;
24433;OR4Q3;;
3314;OR4Q3;;
20499;OR4Q3;;
1549026;OR4Q3;;
92043553;OR4X2;;
11952;OR4X2;;
638014;OR5A1;;
638014;OR5A2;;
7136;OR5B17;;
105513;OR5B17;;
;OR5C1;1268142;
;OR5C1;19844;
;OR5C1;1549018;
;OR5C1;637776;
;OR5C1;27866;
;OR5C1;8467;
21648;OR5D3P;;
264;OR5D14;;
;OR5D16;1183;
;OR5D16;62465;
;OR5D16;8467;
;OR5D16;3283;
;OR5D16;7136;
;OR5D16;3314;
;OR5D16;62465;
;OR5D16;637776;
;OR5D16;637796;
;OR5D18;1183;
;OR5D18;62465;
;OR5D18;8467;
;OR5D18;3283;
;OR5D18;7136;
;OR5D18;3314;
;OR5D18;7144;
;OR5D18;1549045;
;OR5D18;637796;
107254;OR5K1;;
7127;OR5K1;;
;OR5K1;;
31252;OR5K1;;
7938;OR5K1;;
26808;OR5K1;;
19309;OR5K1;;
;OR5L1;;
5374527;OR5L1;;
7710;OR5L1;;
;OR5M11;2969;
;OR5M11;379;
31244;OR5P1;;
323;OR5P3;16724;
7410;OR5P3;439570;
439570;OR5P3;323;
16724;OR5P3;8129;
8129;OR5P3;8103;
8103;OR5P3;;
957;OR5P3;;
3782139;OR5P3;;
54682930;OR5P3;;
7047;OR5P3;;
7136;OR5AC2;;
80865;OR5AC2;;
3354132;OR5AC2;;
798;OR5AC2;;
6736;OR5AC2;;
62902;OR5AC2;;
1183;OR5AC2;;
5366077;OR5AC2;;
264;OR5AL1;;
;OR5AN1;;
;OR5AN1;;
10947;OR5AN1;;
11218601;OR5AN1;;
162268;OR5AN1;;
5362739;OR5AN1;;
5368451;OR5AN1;;
62329;OR5AN1;;
13162;OR5AN1;;
;OR5AR1;14489;
;OR5AR1;91691547;
;OR5AU1;62378;
;OR6A2;8063;
;OR6A2;8130;
;OR6A2;8175;
;OR6A2;8186;
;OR6A2;8194;
;OR6A2;454;
;OR6A2;31289;
;OR6A2;6184;
;OR6C4;443157;
7127;OR6F1;;
;OR6N1;7410;
;OR6N1;9309;
31244;OR6P1;31244;
998;OR6P1;;
;OR6Q1;7410;
;OR6Q1;9309;
;OR6T1;443157;
;OR6T1;101977;
439570;OR6X1;;
650;OR6Y1;;
;OR7A1;;
93199;OR7A5;;
;OR7A5;;
;OR7A10;323;
;OR7A10;7410;
;OR7A11;68110;
;OR7A12;15717;
;OR7A13;62378;
;OR7A14;7967;
;OR7A15;444294;
;OR7A16;159055;
;OR7A17;24473;
;OR7A18;439570;
;OR7A19;16724;
;OR7A20;14489;
;OR7A21;637566;
;OR7A22;68382;
;OR7A23;31229;
;OR7A24;8785;
;OR7A25;1201521;
92979;OR7C1;;
6852393;OR7D1;;
;OR7D2;323;
;OR7D2;7410;
;OR7D2;68110;
;OR7D2;15717;
;OR7D2;62378;
;OR7D2;7967;
;OR7D2;444294;
;OR7D2;159055;
;OR7D2;24473;
;OR7D2;439570;
;OR7D2;16724;
;OR7D2;14489;
;OR7D2;637566;
;OR7D2;68382;
;OR7D2;31229;
;OR7D2;8785;
;OR7D2;1201521;
6852393;OR7D4;;
;OR7D4;;
92979;OR7D4;;
264;OR7G2;;
;OR8A1;240;
;OR8A1;7410;
16724;OR8B3;;
7439;OR8B3;;
439570;OR8B3;;
;OR8B4;;
;OR8B4;;
;OR8B4;;
;OR8B8;323;
;OR8B8;68110;
;OR8B8;7410;
62835;OR8D1;;
16072318;OR8D1;;
;OR8D2;;
;OR8D2;;
;OR8D2;;
8736;OR8H1;;
;OR8I2;323;
;OR8I2;7410;
;OR8I2;68110;
;OR8J1;323;
;OR8J1;7410;
;OR8J1;12756;
;OR8J3;323;
;OR8J3;7410;
;OR8J3;68110;
;OR8J3;7967;
;OR8J3;159055;
;OR8J3;12756;
165675;OR8K3;;
;OR8K3;;
5374527;OR8K3;;
798;OR8S1;;
6736;OR8S1;;
10430;OR8U8;;
637511;OR9G1;;
7136;OR9G1;;
2879;OR9Q2;;
8797;OR9Q2;;
7685;OR9Q2;;
;OR9Q2;;
;OR10A3;15077;
;OR10A3;957;
;OR10A4;8130;
853433;OR10A6;;
61052;OR10A6;;
6852393;OR10A6;;
62571;OR10A6;;
264;OR10A6;;
92979;OR10A6;;
;OR10A6;;
;OR10A6;;
;OR10A6;;
8892;OR10A6;;
8158;OR10A6;;
2969;OR10A6;;
8180;OR10A6;;
;OR10A7;8130;
6850781;OR10AG1;;
;OR10D3;7136;
;OR10D3;637776;
;OR10D3;7137;
;OR10D3;3314;
;OR10D3;853433;
;OR10D4;1183;
;OR10D4;3314;
;OR10D4;853433;
1183;OR10G3;;
8467;OR10G3;;
7136;OR10G3;;
637511;OR10G3;;
1183;OR10G4;31229;
7144;OR10G4;15717;
;OR10G4;8785;
460;OR10G4;;
8467;OR10G4;;
;OR10G7;31229;
92043553;OR10G7;15717;
;OR10G7;8785;
7127;OR10G7;;
3314;OR10G7;;
6850746;OR10G7;;
460;OR10G7;;
8467;OR10G7;;
7136;OR10G7;;
;OR10G8;31229;
;OR10G8;15717;
;OR10G8;8785;
8467;OR10G9;31229;
;OR10G9;15717;
;OR10G9;8785;
16072318;OR10H1;;
6438196;OR10H1;;
637511;OR10H2;;
1549026;OR10H2;;
;OR10H3;7794;
3314;OR10H5;;
16072318;OR10J1;91604;
83268;OR10J1;;
;OR10J1;;
;OR10J5;91604;
91604;OR10J5;6431015;
442348;OR10J5;;
;OR10K2;8785;
;OR10P1;3102;
;OR10Q1;;
;OR10Q1;;
;OR10Q1;;
16666;OR10X1;;
106997;OR11A1;;
;OR11A1;;
798;OR11G2;8103;
6736;OR11G2;8129;
;OR11G2;6276;
10430;OR11H4;31229;
798;OR11H4;9309;
6736;OR11H4;323;
;OR11H4;7410;
;OR11H4;379;
;OR11H4;8158;
;OR11H4;8094;
;OR11H4;552003;
10430;OR11H6;;
798;OR11H6;;
6736;OR11H6;;
10430;OR11H7;;
11084068;OR11H7;;
439570;OR11H7;;
16724;OR11H7;;
22227;OR11H7;;
165675;OR11H7;;
101977;OR11H7;;
443157;OR11H7;;
7793;OR11H7;;
8174;OR11H7;;
8129;OR11H7;;
8051;OR11H7;;
13187;OR11H7;;
8093;OR11H7;;
;OR11L1;444294;
;OR11L1;1201521;
;OR11L1;159055;
;OR12D2;;
;OR12D2;;
;OR12D2;;
;OR12D2;;
;OR12D2;;
;OR12D2;;
;OR12D3;323;
;OR12D3;7410;
;OR12D3;16724;
;OR12D3;14489;
7136;OR13C3;;
5354834;OR14A2;;
16072318;OR14A16;;
1549026;OR14A16;;
5281167;OR14J1;;
;OR51A4;8158;
;OR51B2;8094;
;OR51B2;7991;
;OR51B2;68382;
;OR51B2;7991;
;OR51B2;15717;
;OR51B2;6184;
;OR51B2;8892;
;OR51B4;8094;
;OR51B4;;
;OR51B5;;
264;OR51D1;957;
8158;OR51E1;8158;
10430;OR51E1;957;
;OR51E1;;
264;OR51E1;;
;OR51E1;;
24114;OR51E1;;
;OR51E1;;
;OR51E1;;
957;OR51E1;;
1032;OR51E1;;
8892;OR51E1;;
2969;OR51E1;;
8180;OR51E1;;
1032;OR51E2;1032;
;OR51E2;;
638014;OR51E2;;
;OR51E2;;
175;OR51E2;;
;OR51E2;;
10430;OR51I2;;
8892;OR51I2;;
264;OR51I2;;
7991;OR51I2;;
20653;OR51I2;;
95315;OR51I2;;
243;OR51I2;;
15717;OR51L1;;
8892;OR51L1;;
1032;OR51L1;;
92979;OR51L1;;
998;OR51L1;;
8892;OR51L1;;
379;OR51Q1;8094;
8094;OR51Q1;8158;
8158;OR51Q1;379;
2969;OR51Q1;2969;
;OR52A5;8094;
;OR52A5;379;
;OR52A5;8158;
2969;OR52B2;8917;
8892;OR52B2;957;
8094;OR52B2;548275;
379;OR52B2;8094;
8158;OR52B2;8158;
8180;OR52B2;379;
;OR52B4;8180;
;OR52B4;8194;
;OR52B4;3893;
;OR52B4;15816;
;OR52B4;17812;
;OR52B4;142712;
3314;OR52B6;8094;
8091;OR52D1;8129;
31244;OR52D1;8914;
31265;OR52D1;957;
31276;OR52D1;20210;
454;OR52D1;552003;
31289;OR52D1;8094;
444539;OR52D1;8892;
8815;OR52D1;8158;
8892;OR52D1;379;
8914;OR52D1;;
638014;OR52D1;;
62444;OR52D1;;
32594;OR52D1;;
9256;OR52D1;;
637563;OR52D1;;
10430;OR52D1;;
179;OR52D1;;
638011;OR52D1;;
12367;OR52D1;;
12741;OR52D1;;
7967;OR52D1;;
7983;OR52D1;;
9862;OR52D1;;
8094;OR52D1;;
8158;OR52D1;;
8175;OR52D1;;
64805;OR52D1;;
7797;OR52D1;;
246728;OR52D1;;
7826;OR52D1;;
6590;OR52D1;;
61235;OR52D1;;
5144;OR52D1;;
7222;OR52D1;;
7410;OR52D1;;
264;OR52D1;;
244;OR52D1;;
7519;OR52D1;;
7762;OR52D1;;
7794;OR52D1;;
1032;OR52D1;;
240;OR52D1;;
12813;OR52D1;;
264;OR52E1;;
1032;OR52E2;;
2969;OR52E2;;
998;OR52E2;;
;OR52E4;8158;
;OR52E4;8180;
;OR52E4;8186;
;OR52E4;379;
;OR52E4;552003;
;OR52E4;2969;
;OR52E4;142712;
16666688;OR52E8;8094;
264;OR52H1;;
264;OR52I1;;
;OR52I2;7410;
;OR52I2;68110;
;OR52I2;62378;
;OR52I2;7967;
;OR52I2;24473;
;OR52I2;439570;
;OR52I2;16724;
;OR52I2;68382;
;OR52I2;31229;
;OR52I2;8785;
;OR52I2;8129;
;OR52I2;62539;
;OR52I2;19707;
;OR52I2;8103;
;OR52I2;54682930;
;OR52I2;6276;
;OR52K1;2266;
;OR52K1;15816;
;OR52K1;5192;
;OR52K1;12736;
7991;OR52L1;;
12813;OR52L1;;
;OR52L2;8158;
;OR52L2;8175;
;OR52L2;31289;
;OR52L2;2969;
;OR52R1;8158;
;OR52R1;2969;
;OR52R1;31289;
;OR52R1;379;
;OR52R1;8094;
;OR52R1;8175;
8175;OR56A1;;
8186;OR56A4;8094;
8175;OR56A4;379;
;OR56A4;8158;
;OR56A4;957;
;OR56A4;8914;
;OR56A4;552003;
8175;OR56A5;;
8892;OR56A5;;
8094;OR56A5;;
14475;OR56A5;;
379;OR56A5;;
8158;OR56A5;;
2969;OR56A5;;
8180;OR56A5;;
8914;OR56B2;8186;
548275;OR56B2;8180;
8158;OR56B2;2969;
379;OR56B2;8158;
;OR56B2;8914;
;OR56B2;142714;
853433;OR10A3;;-3.862846
6852393;OR10A5;;-5.276606
6852393;OR10A6;;-4.513982
264;OR10A6;;-4.20296
92979;OR10A6;;-4.04229
853433;OR10A6;;-3.554621
61052;OR10A6;;-2.342104
1268142;OR10A6;;-2.979146
6852393;OR10A6 A117V/V140G/L287P;;-4.419149
264;OR10A6 A117V/V140G/L287P;;-4.294589
92979;OR10A6 A117V/V140G/L287P;;-4.315679
853433;OR10A6 A117V/V140G/L287P;;-3.973618
61052;OR10A6 A117V/V140G/L287P;;-2.846145
1268142;OR10A6 A117V/V140G/L287P;;-3.039148
6852393;OR10A6 L287P;;-4.062635
61052;OR10A6 L287P;;-8.752657
6852393;OR10A6 V140G/L287P;;-4.164199
264;OR10A6 V140G/L287P;;-4.621557
92979;OR10A6 V140G/L287P;;-4.739969
853433;OR10A6 V140G/L287P;;-3.83047
61052;OR10A6 V140G/L287P;;-6.670943
1268142;OR10A6 V140G/L287P;;-2.667164
31358;OR10A7;;0.915403
10558;OR10A7;;-2.081932
92979;OR10A7;;-3.003264
N/A;OR10A7;;-2.21045
31272;OR10AG1;;-2.499662
N/A;OR10AG1;;-4.111039
5281167;OR10C1;;-2.405367
1268142;OR10C1;;-2.313971
5281167;OR10C1;;-2.451812
1268142;OR10C1;;-2.306201
5281167;OR10C1 F60L/P174Q/M246V ;;-3.092414
1268142;OR10C1 F60L/P174Q/M246V ;;-2.384096
5281167;OR10C1 M246V;;-2.808655
1268142;OR10C1 M246V;;-3.629028
12348;OR10G3;;-2.431484
7136;OR10G3;;-3.074075
1183;OR10G3;;-3.626273
12348;OR10G3 S73G;;-2.780055
7136;OR10G3 S73G;;-3.090459
1183;OR10G3 S73G;;-3.872772
1183;OR10G4;;-2.826757
1183;OR10G4;;-4.884771
1183;OR10G4;;-3.936584
7144;OR10G4 A9V/M134V/V195E/R235G/K295Q;;-5.591108
8467;OR10G4 A9V/M134V/V195E/R235G/K295Q;;-3.621628
1183;OR10G4 A9V/M134V/V195E/R235G/K295Q;;-4
1183;OR10G4 K295Q;;-5.009612
263;OR10G6;;-2.930533
7144;OR10G6;;-12
N/A;OR10G6;;-2.486133
6852393;OR10G6;;-2.864366
N/A;OR10G6;;-7.065891
N/A;OR10G6;;-4.924437
N/A;OR10G6  ;;-4.72002
N/A;OR10G6 C190S;;-4.897511
N/A;OR10G6 R75P;;-4.896849
3314;OR10G7;;-8.945057
7144;OR10G7;;-5.864652
N/A;OR10G7;;-5.207827
3314;OR10G7;;-5.778822
7127;OR10G7;;-6.028945
460;OR10G7;;-5.864652
N/A;OR10G7;;-5.518519
N/A;OR10G7;;-6.02504
N/A;OR10G7;;-3.637615
3314;OR10G7 T13M;;-4.201546
3314;OR10G7 T90A;;-5.69945
241;OR10H1;;-2.937705
7410;OR10H1;;-3.521039
N/A;OR10H1;;-4.838566
N/A;OR10H1;;-4.875125
N/A;OR10H1 G16R/A65V;;-4.875485
637511;OR10H2;;-4.783579
8467;OR10H2;;-3.24012
1549026;OR10H2;;-3.614803
637511;OR10H2 L40Q;;-5.495953
8467;OR10H2 L40Q;;-6.111153
1549026;OR10H2 L40Q;;-3.874085
3314;OR10H5;;-4.756821
3314;OR10H5;;-4.103876
3314;OR10H5 A19V/S268Y;;-3.86647
181287;OR10H5 A224D;;-2.744728
3314;OR10H5 A224D;;-3.345819
3314;OR10H5 S268Y;;-3.824874
91604;OR10J5;;-4.325151
91604;OR10J5 R233W;;-3.845292
16666;OR10X1;;-3.106632
16666;OR10X1  ;;-2.786259
106997;OR11A1;;-6.689791
5281167;OR11A1;;-3.529096
3314;OR11G2  ;;-3.486213
10430;OR11H4;;-3.950041
10430;OR11H4  ;;-4
10430;OR11H6;;-3.984849
10430;OR11H6  ;;-3.957365
5281167;OR12D2;;-2.808174
92979;OR12D2;;-1.811477
5281167;OR12D2 V47F/L56P/S104F/F113L/L120R/V159I;;-2.431604
5281167;OR12D3;;-3.665183
6549;OR13A1;;-2.857699
6549;OR13A1  ;;-2.876775
6549;OR13A1  ;;-2.5
N/A;OR13C2;;-3.959362
7136;OR13C3  ;;-3.037775
6549;OR13C3  ;;0.495453
8892;OR13C3 G2C ;;-6.629974
7136;OR13C3 G2C ;;-3.706485
6549;OR13C3 G2C ;;0.98083
91604;OR13C4;;-2.957847
3314;OR13D1;;-2.581438
3314;OR13D1;;-3.415544
1549026;OR14A16 I238T;;-3.821034
1549026;OR14A16 Indel;;-3.83879
N/A;OR14A16 Indel;;-4.934719
1549026;OR14A16 V172A/I238T;;-3.803801
12348;OR14A2;;0.77584
5283345;OR14A2;;-3.125011
3314;OR14A2;;-3.920599
440917;OR14A2;;-3.878654
3314;OR14A2 A115V ;;-3.867132
3314;OR14A2 A115V ;;-3.84464
5281167;OR14J1;;-2.866554
5281167;OR14J1;;-3.617926
5281167;OR14J1  ;;-2.609424
5281167;OR14J1 M7T;;-2.855486
16724;OR1A1;;-3.833459
439570;OR1A1;;-2.599486
16724;OR1A1 P285S;;-7.232233
439570;OR1A1 P285S;;-2.849589
16724;OR1A1 R128H;;-6.992768
16724;OR1A1 V233M;;-3.98415
439570;OR1A1 V233M;;-2.156259
443157;OR1A2;;-2.777772
323;OR1C1;;-6.0922
6549;OR1C1;;-6.550553
1549026;OR1D2;;-3.025864
228987;OR1D2;;-2.44375
1549026;OR1D2;;-3.291896
228987;OR1D2;;-2.840699
1549026;OR1D2 F31Y;;-2.913716
228987;OR1D2 F31Y;;-2.872301
1549026;OR1D2 R25Q;;-3.10554
228987;OR1D2 R25Q;;-2.884315
1549026;OR1D2 T240I;;-3.078871
228987;OR1D2 T240I;;-2.89836
N/A;OR1D4;;-2.237117
N/A;OR1D5;;-3.036563
3314;OR1D5;;-4.506686
3314;OR1D5;;-3.869747
3314;OR1D5;;-3.984674
10430;OR1E1  ;;-3.65406
853433;OR1E2;;-4.950103
N/A;OR1E2 C27R;;-3.540073
853433;OR1E2 C27R;;-4.519992
650;OR1F1 F75S;;-2.745176
17429;OR1F1 F75S;;-2.919773
31289;OR1G1;;-2.80321
2266;OR1N1;;-1.461533
1049;OR1N1;;-3.004394
N/A;OR1N1;;-4.926641
N/A;OR1N1 P18S;;-4.821396
6549;OR1N2;;-3.887884
6549;OR1N2 W23R/V230G/T287M ;;-3.953221
6549;OR1N2 W37R/V244G/T301M ;;-3.916528
N/A;OR1S1;;-2.56473
N/A;OR1S2;;-4.234561
N/A;OR1S2 I46T ;;-3.96365
4133;OR1S2 I46T ;;-5.440577
165675;OR2A12;;-3.104072
3314;OR2A12;;-3.034284
1549026;OR2A25;;-5.944067
7047;OR2A25;;-5.802114
1549026;OR2A25;;-6.669755
1549026;OR2A25 A209P;;-8.195312
1549026;OR2A25 S75N;;-2.394437
1549026;OR2A25 S75N/A209P;;-7.812747
7047;OR2A25 S75N/A209P;;-6.350844
92979;OR2AG1;;-11.49895
10890;OR2AG1;;-10.297002
853433;OR2AT4;;-4.909692
637511;OR2B11;;-5.228026
323;OR2B11;;-3.449716
17356;OR2B11;;-3.040297
20499;OR2B11;;-3.510834
N/A;OR2B11;;-4.346069
7047;OR2B11;;-5.409733
637511;OR2B11;;-2.733849
N/A;OR2B11;;-2.825381
637511;OR2B11 I130S/V198M;;-3.913564
323;OR2B11 I130S/V198M;;-3.974575
N/A;OR2B11 I130S/V198M;;-2.810024
7047;OR2B11 I130S/V198M;;-10.825413
637511;OR2B11 V198M;;-4.197896
323;OR2B11 V198M;;-3.52153
20499;OR2B11 V198M;;-3.004449
N/A;OR2B11 V198M;;-4.666907
7047;OR2B11 V198M;;-5.176733
637511;OR2B11 V198M/G223D;;-3.654457
323;OR2B11 V198M/G223D;;-4.238039
N/A;OR2B11 V198M/G223D;;-2.889194
7047;OR2B11 V198M/G223D;;-12
637511;OR2B11 V198M/T293I/D300G;;-4.474848
323;OR2B11 V198M/T293I/D300G;;-3.711228
20499;OR2B11 V198M/T293I/D300G;;-3.094605
N/A;OR2B11 V198M/T293I/D300G;;-6
7047;OR2B11 V198M/T293I/D300G;;-4.148126
5281167;OR2B3;;-2.749144
9261;OR2B3;;-2.5
637511;OR2C1;;-5.223877
8144;OR2C1;;-4.998104
637511;OR2C1;;-5.346972
8144;OR2C1;;-8.670955
637511;OR2C1 C149W;;-5.367049
20499;OR2C1 C149W;;-2.927588
1133;OR2C1 C149W;;-6.425955
8144;OR2C1 C149W;;-5.011693
998;OR2C1 C149W;;-5
637511;OR2C1 G16S/C149W/C169Y/R229H;;-4.856817
20499;OR2C1 G16S/C149W/C169Y/R229H;;-5.861708
1133;OR2C1 G16S/C149W/C169Y/R229H;;-10.500111
8144;OR2C1 G16S/C149W/C169Y/R229H;;-4.929136
998;OR2C1 G16S/C149W/C169Y/R229H;;-4.492584
637511;OR2C1 G16S/C149W/R229H;;-5.367376
8144;OR2C1 G16S/C149W/R229H;;-4.955833
637511;OR2C1 P58S/C149W;;-5.365418
8144;OR2C1 P58S/C149W;;-4.94552
12348;OR2F1;;-2.826134
7967;OR2F1;;-2.126627
7136;OR2F1;;-3.209535
1549026;OR2F1;;-3.783144
440917;OR2F1;;-3.896164
1133;OR2F1;;-5.678597
7136;OR2F1;;-3.090157
7136;OR2F1;;-2.319638
7136;OR2F1 R122C/H137R;;-2.21366
7136;OR2F1 T57A/H137R;;-2.307911
5283345;OR2G2;;-2.866014
998;OR2G3;;-3.932481
5281167;OR2H1;;-3.14574
5281167;OR2H2;;-3.844414
5281167;OR2H2 L30F/A48V;;-2.833875
N/A;OR2H2 L30F/A48V;;-2.863955
323;OR2J1  ;;-12
5281167;OR2J1  ;;-3.338267
193087;OR2J1  ;;-10.570161
5281167;OR2J1 L12I;;-3.979704
193087;OR2J1 L12I;;-13.432141
6852393;OR2J2;;-1.366903
5281167;OR2J2;;-3.784427
8467;OR2J2;;-2.827488
7127;OR2J2;;-2.723657
853433;OR2J2;;-3.959203
998;OR2J2;;-4.427836
6852393;OR2J2;;-2
5281167;OR2J2;;-3.018507
8467;OR2J2;;-3.867692
7127;OR2J2;;-6.488021
853433;OR2J2;;-4.929496
998;OR2J2;;-5.691361
6852393;OR2J2;;-4.789246
8467;OR2J2;;-2.692513
24433;OR2J2;;-2.992408
6852393;OR2J2 T111A;;-2.528249
5281167;OR2J2 T111A;;-4.165237
8467;OR2J2 T111A;;-3.21588
7127;OR2J2 T111A;;-6.5
853433;OR2J2 T111A;;-4.930151
998;OR2J2 T111A;;-5.585119
24433;OR2J2 T111A;;-3.719241
6852393;OR2J2 Y74H/T111A/V146A/T218A;;-1.87755
5281167;OR2J2 Y74H/T111A/V146A/T218A;;-3.901004
8467;OR2J2 Y74H/T111A/V146A/T218A;;-2.646591
7127;OR2J2 Y74H/T111A/V146A/T218A;;-2.935445
853433;OR2J2 Y74H/T111A/V146A/T218A;;-3.912205
998;OR2J2 Y74H/T111A/V146A/T218A;;-4.774531
5281167;OR2J3;;-2.890533
1549026;OR2J3;;-2.351085
5281167;OR2J3;;-4.588795
5281167;OR2J3;;-2.75659
12348;OR2J3;;-6.221849
637511;OR2J3;;-5.252804
5281167;OR2J3;;-4.045763
5281167;OR2J3;;-4.140724
637511;OR2J3 I228V;;-8.290366
5281167;OR2J3 I228V;;-4.042928
61014;OR2J3 I228V;;-2.974142
1549026;OR2J3 I228V;;-4.009552
637511;OR2J3 I228V/M261I;;-8.435897
5281167;OR2J3 I228V/M261I;;-3.999448
61014;OR2J3 I228V/M261I;;-10.486326
7127;OR2J3 I228V/M261I;;-5.299472
1549026;OR2J3 I228V/M261I;;-3.510432
454;OR2J3 I228V/M261I;;-4.106941
N/A;OR2J3 I228V/M261I;;-5.213863
637511;OR2J3 R226Q/I228V/M261I;;-5.277251
5281167;OR2J3 R226Q/I228V/M261I;;-2.488953
61014;OR2J3 R226Q/I228V/M261I;;-3.893393
1549026;OR2J3 R226Q/I228V/M261I;;-2.513682
12348;OR2J3 T113A/R226Q/I228V/M261I ;;-7.404389
637511;OR2J3 T113A/R226Q/I228V/M261I ;;-3.689201
5281167;OR2J3 T113A/R226Q/I228V/M261I ;;-2.297393
957;OR2L2;;-2.836454
1549026;OR2M2;;-2.323734
1549026;OR2M2 R220G/C235R;;-2.203957
1549026;OR2M2 R220G/C235R/A237T;;-3.231401
1549026;OR2M2 S87C/R220G/C235R;;-2.341104
637566;OR2M7;;-2.300382
637566;OR2M7 F35L/V78A/C178F;;-2.622311
637566;OR2M7 F35L/V78A/C178F/D191N;;-2.892459
853433;OR2S2  ;;-3.909261
264;OR2T1;;-3.718674
264;OR2T1  ;;-3.657455
264;OR2T1 I76V;;-3.747377
7410;OR2T1 P132L;;-2.008941
264;OR2T1 P132L;;-3.365357
N/A;OR2T1 P132L;;-4.91966
440917;OR2T1 P132L;;-3.220057
998;OR2T10;;-4.29276
650;OR2T29;;-4.227996
7136;OR2T29;;-2.001668
7136;OR2T29;;-2.152338
N/A;OR2T6 N21D/C23G/S243A;;-4
637566;OR2W1;;-2.332364
5281167;OR2W1;;-5.471144
637566;OR2W1 D296N;;-2.134743
5281167;OR2W1 D296N;;-5.678661
637566;OR2W1 M81V;;-4.050809
5281167;OR2W1 M81V;;-5.098024
1549026;OR2W3 Indel ;;-2.304595
N/A;OR3A1;;-4.307659
8467;OR3A1;;-2.586784
64805;OR3A1;;-2.849541
N/A;OR3A1;;-3.381715
8467;OR3A1;;-2.844455
64805;OR3A1;;-2.871677
62378;OR3A1  ;;-3.854229
N/A;OR3A1  ;;-4.095599
8467;OR3A1  ;;-2.800383
64805;OR3A1  ;;-3.069535
14228;OR3A1  ;;-8.008436
N/A;OR3A1 R125Q;;-4.498451
8467;OR3A1 R125Q;;-3.647727
64805;OR3A1 R125Q;;-2.878617
N/A;OR4A4  ;;-3.90126
998;OR4A4  ;;-2.166254
N/A;OR4A5;;-3.894089
10430;OR4C12 V283L;;-3.31077
181287;OR4C15;;-2.279662
31289;OR4C15;;-2.878062
31289;OR4C15;;-2.840079
637566;OR4C3  ;;-2.921636
61014;OR4D1 R54Q;;-2.393162
7136;OR4D2;;-3.889824
7136;OR4D2;;-2.868651
7136;OR4D2 C97S/L187F;;-4.789605
235414;OR4D2 C97S/L187F;;-8.264619
7136;OR4D2 L29I;;-3.938967
12348;OR4E1;;-10.281587
91497;OR4E1;;-4.770715
12348;OR4E2 V118M/Q234R;;-2.500782
637566;OR4E2 V118M/Q234R;;-2.822797
7127;OR4E2 V118M/Q234R;;-3.260213
1183;OR4E2 V118M/Q234R;;-2.800912
6852393;OR4F17;;-2.463826
3314;OR4F17;;-5.255584
3314;OR4F17;;-3.813146
31272;OR4F21;;-10.527224
264;OR4F21;;-4.755132
3314;OR4F6;;-4.702339
3314;OR4F6  ;;-4.174192
181287;OR4K1 R89H;;0.338768
N/A;OR4K1 R89H;;-4.785008
8051;OR4K2;;-3.360713
3314;OR4K2;;-4.16743
8051;OR4K2 N307I;;-7.958442
3314;OR4K2 N307I;;-4.013555
3314;OR4K3;;-2.01904
181287;OR4K5;;-2.733717
3314;OR4K5;;-4.578604
1549026;OR4L1 R52S;;-3.87735
323;OR4N2;;-2.554579
7127;OR4N2;;-2.960661
92979;OR4N2;;-2.03846
323;OR4N2 I76T;;-2.737586
7127;OR4N2 I76T;;-2.797369
323;OR4N2 P58A/I76T/P133S/V135L;;-2.879122
7127;OR4N2 P58A/I76T/P133S/V135L;;-2.830992
61014;OR4N4;;-2.754859
N/A;OR4N4;;-3.284403
8175;OR4N5;;-2.900472
8175;OR4N5;;-2.942292
3314;OR4Q3;;-5.140428
92979;OR4Q3;;-2.932702
24433;OR4Q3;;-6.514081
3314;OR4Q3 F238L;;-6.460648
92979;OR4Q3 F238L;;-2.779454
24433;OR4Q3 F238L;;-2.791792
637566;OR4X2;;-2.511847
6852393;OR4X2;;-4.81608
N/A;OR4X2;;-4.097442
N/A;OR51B6;;-2.972945
N/A;OR51D1;;-2.80944
264;OR51D1;;-4.075395
10430;OR51E1;;-4.918643
10430;OR51E1 K299R ;;-4.638454
10430;OR51E1 S11N;;-4.315346
1032;OR51E2  ;;-3.280349
638014;OR51E2  ;;-5.535496
10430;OR51E2  ;;-3.909618
22227;OR51F1;;-2.774353
N/A;OR51F1  ;;0.38508
22227;OR51F1  ;;-2.86544
22227;OR51F1 T13A;;-2.862893
193087;OR51J1 R75H;;-2.492877
15717;OR51L1;;-7.564035
15717;OR51L1  ;;-6.674067
15717;OR51L1 I281M;;-6.929608
15717;OR51L1 T196I/A207V;;-7.901591
61014;OR51Q1;;-3.073421
N/A;OR51V1;;-3.904389
3314;OR52B6 T36A/L90H/A146T/H149R/V267I ;;-3.972742
N/A;OR52D1;;-2.902575
8091;OR52D1;;-2.938699
106997;OR52E1;;-2.760422
8175;OR52I2  ;;-2.901922
8175;OR52I2 T132M ;;-2.678759
3314;OR52K1;;-4.345988
3314;OR52K1 Q52R;;-4.338709
3314;OR52K1 Q52R/R153W;;-4.235921
16666;OR52L1 D73N/C125R/C146R/K168T/W282R ;;-2.393771
106997;OR52L1 D73N/C125R/C146R/K168T/W282R ;;-2.314712
N/A;OR52L1 D73N/C125R/C146R/K168T/W282R ;;-2.842748
6852393;OR52L1 D73N/C125R/C146R/K168T/W282R ;;-2.832208
N/A;OR52L1 D73N/C125R/C146R/K168T/W282R ;;-7.700057
N/A;OR52N5;;-2.534466
3314;OR56A3;;-2.985916
3314;OR56A3 M51T;;-3.073127
8175;OR56A4;;-3.090654
8186;OR56A4;;-2.70804
440917;OR56A5;;-1.250772
7136;OR5AK2;;-3.849518
7136;OR5AK2 M92I ;;-3.008615
264;OR5AL1;;-4.5
264;OR5AL1 Insertion;;-4.5
264;OR5AL1 Insertion;;-4.985765
650;OR5AR1;;-2.757526
6590;OR5D13 C62Y/R236L ;;-9.111603
264;OR5D14;;-4.15604
264;OR5D14;;-4
264;OR5D14 Q102L/S249A ;;-4.211535
264;OR5D14 S249A ;;-4.053995
264;OR5D14 S249A/L290P ;;-3.985431
3314;OR5D16;;-2.844599
6590;OR5H2 E11Q/I225V/I281V ;;-2.850295
7144;OR5J2  ;;-3.459326
181287;OR5K1;;-8.772658
650;OR5K1;;-4
7127;OR5K1;;-7.937295
61014;OR5L1  ;;-2.837309
61014;OR5M10 V69L;;-2.813297
91604;OR5M9;;-2.941423
8892;OR5P2;;-5.490334
323;OR5P3;;-5.222902
6852393;OR5R1;;-1.782708
5281167;OR5V1;;-3.5
4133;OR5V1;;-2.778857
106997;OR6C1 V74I/C130Y/L161F/H165D/V246I/R291K;;-2.590539
853433;OR6C1 V74I/C130Y/L161F/H165D/V246I/R291K;;-4.91747
8467;OR6C65;;-2.619813
264;OR6C68 A45T ;;-4.503143
7127;OR6F1;;-2.835051
17100;OR6F1;;-2.873423
7127;OR6F1 F215L;;-3.202276
7127;OR6F1 P159A/F215L;;-2.944377
31244;OR6P1;;-3.163135
998;OR6P1;;-4.535208
91604;OR6P1;;-2.948477
6852393;OR6Q1;;-2.641356
8467;OR6S1 R237H;;-2.909327
8467;OR6S1 R237H/R296C;;-2.604847
8467;OR6S1 T42I/V156I/R237H;;-2.905036
6852393;OR7C1;;-4.48975
92979;OR7C1;;-4.844662
92979;OR7C1;;-4.000383
6852393;OR7C1 E171K;;-1.910237
92979;OR7C1 S99G/V126I/E171K/S210P;;-4.534736
92979;OR7C1 V126I/E171K/S210P;;-5.052037
6852393;OR7D4;;-5.720727
6852393;OR7D4;;-5.423966
6852393;OR7D4 P79L;;-4.6292
6852393;OR7D4 R88W/T133M;;-4.936094
264;OR7G2;;-4
264;OR7G2;;-4
264;OR7G2 P175L;;-4
264;OR7G2 V263A/F281V;;-4.27601
264;OR7G2 V263A/F281V ;;-3.879725
6852393;OR8B2  ;;-2.500005
16724;OR8B3 H20R/Q24R/V34I/M114I ;;0.667021
439570;OR8B3 H20R/Q24R/V34I/M114I ;;-7.833519
439570;OR8B3 H20R/Q24R/V34I/M114I ;;-5.824862
439570;OR8B4 E22G;;-2.5
6549;OR8B4 E22G;;-2.253784
439570;OR8B4 Y131H/C140F/C178R;;-2.826763
6549;OR8B4 Y131H/C140F/C178R;;-2.779639
5283345;OR8B8;;-2.495706
8467;OR8B8;;-2.907181
8467;OR8B8  ;;-2.899663
8094;OR8D1;;-5.73613
7463;OR8D1;;-2.624048
92979;OR8D1;;-3.073308
N/A;OR8D1;;-4.372219
62835;OR8D1;;-4.648449
7136;OR8D4 C120Y/R133K/F200L/L283P/R298K;;-3.855184
5283345;OR8G1;;-2.877427
31289;OR8K1;;-2.772823
16666;OR8K3 L122R;;-6.212649
165675;OR8K3 L122R;;-6.209464
7127;OR8S1 M48V/L82P/R128C/A198T;;-2.770653
10430;OR8U8;;-3.345996
637511;OR9G1;;-4.841095
N/A;OR9G1;;-2.83629
6852393;OR9G1;;0.457664
N/A;OR9G1;;-2.705917
7136;OR9G1;;-2.880879
7136;OR9G1;;-3.205492
7136;OR9G1 C53R/T62I;;-2.963301
7136;OR9G1 C53R/T62I/C98G ;;-2.916344
7136;OR9G1 C53R/T62I/C98G/A259S;;-2.940178
N/A;OR9G4 N191D ;;-4.953381